bbgatch | How to Backcast with fable
…
            # Read in data
            df <- read_csv('../data/tsa.csv')
            df <- df |> as_tsibble(index = Date)

        The data looks like this after being loaded and converted to a tsibble:

            # A tsibble: 1,212 x 2 [1D]
              Date       Passengers
                        
            1 2019-01-05    2345103
            2 2019-01-06    2202111
            3 2019-01-07    2150571
            4 2019-01-08    1975947
            5 2019-01-09    2229391
            6 2019-01-10    2044043
            7 2019-01-11    1733739
            8 2019-01-12    1739642
            9 2019-01-13    1955200
           10 2019-01-14    1959788
            # ... with 1,202 more rows
…
        Right now the Date is the index in the tsibble. We'll need to create a new reversed index in order to forecast back in time.

        Below we're using the dplyr::row_number() function to generate row numbers and then using the base::rev() function to reverse those numbers. The new field reverse_time shows this new reversed index.

            df |>
            # Remove Covid impact
            filter(Date <= '2020-02-29') |>
            # Create reverse index
            mutate(reverse_time = rev(row_number()))

            # A tsibble: 421 x 3 [1D]
               Date       Passengers reverse_time
                                 
             1 2019-01-05    2345103          421
             2 2019-01-06    2202111          420
             3 2019-01-07    2150571          419
             4 2019-01-08    1975947          418
             5 2019-01-09    2229391          417
             6 2019-01-10    2044043          416
             7 2019-01-11    1733739          415
             8 2019-01-12    1739642          414
             9 2019-01-13    1955200          413
            10 2019-01-14    1959788          412
            # ... with 411 more rows

        Now we can update our tsibble to use this new reversed_time field as the index. We can do this with the tsibble::update_tsibble() function. Now we see that the reverse_time field is in ascending order and the Date field is reversed.

            df |>
            # Remove Covid impact
            filter(Date <= '2020-02-29') |>
            # Create reverse index
            mutate(reverse_time = rev(row_number())) |>
            # Use new reverse index as tsibble index
            update_tsibble(index = reverse_time)

            # A tsibble: 421 x 3 [1]
               Date       Passengers reverse_time
                                 
             1 2020-02-29    1949696            1
             2 2020-02-28    2441643            2
             3 2020-02-27    2364727            3
             4 2020-02-26    2075554            4
             5 2020-02-25    1919803            5
             6 2020-02-24    2267382            6
             7 2020-02-23    2380359            7
             8 2020-02-22    1951535            8
             9 2020-02-21    2429489            9
            10 2020-02-20    2358511           10
            # ... with 411 more rows
…
        Given that forecast combinations often outperform individual models, let's use the combination model. We can select the mean values from the combo forecast and append them to our original data so that we have a complete dataset with these missing values filled in.

            # Combine original data and forecast
            fcst <- fcst |>
                filter(.model == 'combo') |>
                as_tibble() |>
                select(Date, .mean) |>
                rename(Passengers = .mean)
            df <- bind_rows(df, fcst)

        Our dataset now has complete data from the beginning of 2019!

            # A tsibble: 1,216 x 2 [1D]
               Date       Passengers
                         
             1 2019-01-01   2086344.
             2 2019-01-02   2107468.
             3 2019-01-03   2060216.
             4 2019-01-04   2031452.
             5 2019-01-05   2345103 
             6 2019-01-06   2202111 
             7 2019-01-07   2150571 
             8 2019-01-08   1975947 
             9 2019-01-09   2229391 
            10 2019-01-10   2044043 
            # ... with 1,206 more rows
…
